<?xml version="1.0" encoding="utf-8"?>
<!-- Generator: Adobe Illustrator 19.2.0, SVG Export Plug-In . SVG Version: 6.00 Build 0)  -->
<svg version="1.1" id="Layer_1" xmlns="http://www.w3.org/2000/svg" xmlns:xlink="http://www.w3.org/1999/xlink" x="0px" y="0px"
	 viewBox="0 0 500 500" style="enable-background:new 0 0 500 500;" xml:space="preserve">
<style type="text/css">
	.st0{fill:#2A357C;}
</style>
<g id="_x31_.0-Home-_x28_Folder_x29_-_x28_S1_x29__x28_C_x29_">
	<g id="M---1.1.4-burger-menu-mobile-_x28_S4_x29__xFF08_K_x29_" transform="translate(-14.000000, -212.000000)">
		<path id="message_icon_burgermenu" class="st0" d="M142.8,604.2C79.7,570.9,37.8,512.4,37.8,445.8c0-103.5,101.2-187.5,226-187.5
			s226,83.9,226,187.5c0,103.5-101.2,187.5-226,187.5c-19.5,0-38.3-2-56.4-5.9L107.1,664c0,0,44.2-29.9,36-59.1
			C143,604.7,142.9,604.4,142.8,604.2z"/>
	</g>
</g>
</svg>
