<?xml version="1.0" encoding="utf-8"?>
<!-- Generator: Adobe Illustrator 19.2.0, SVG Export Plug-In . SVG Version: 6.00 Build 0)  -->
<svg version="1.1" xmlns="http://www.w3.org/2000/svg" xmlns:xlink="http://www.w3.org/1999/xlink" x="0px" y="0px"
	 viewBox="0 0 500 500" style="enable-background:new 0 0 500 500;" xml:space="preserve">
<style type="text/css">
	.st0{display:none;}
	.st1{display:inline;}
	.st2{fill:#0F4E9E;}
	.st3{fill:#114D9D;}
</style>
<g id="Layer_1" class="st0">
	<g id="_x31_.0-Home-_x28_Folder_x29_-_x28_S1_x29__x28_C_x29_" class="st1">
		<g id="Main-Header" transform="translate(-824.000000, -17.000000)">
			<g id="drink_icon">
				<path class="st2" d="M1230.9,72.6c-3.5-22.1-24.2-37.4-46.6-37.4H965.7c-22.3,0-42.9,15.2-46.5,37.1
					c-2.1,12.6,1.2,24.4,7.9,33.5c7.2,9.9,10.3,22.1,11.1,34.3l19.1,312.6c1.5,24,21.5,42.8,45.7,42.8h143.6
					c24.2,0,44.2-18.8,45.7-42.8l19-311.7c0.8-12.5,4.1-25,11.5-35C1229.6,97,1232.9,85.2,1230.9,72.6L1230.9,72.6z M1198.4,86.4
					c-3.7,7.3-15.2,29.1-16.6,49.7l-20.5,315c-0.5,8-7.1,14.1-15.1,14.1h-143c-8,0-14.6-6.1-15.1-14.1l-20.5-315
					c-1.4-20.6-12.8-42.4-16.6-49.7c-3.7-7.3-1.5-20.9,12.2-21h223C1199.9,65.4,1202.2,79.1,1198.4,86.4L1198.4,86.4z M1112.7,210.9
					c-24.9,0-50.2-12.5-80.8-12.5c-8.3,0-14.9,1.5-20.1,3.7c-5.8,2.5-9.2,8.5-8.8,14.8l13.2,203.7c0.5,8.3,7.4,14.7,15.7,14.7h85.8
					c8.3,0,15.2-6.4,15.7-14.7l12.6-194.7c0.5-8.2-5.7-15.3-13.9-15.7C1125,209.7,1117.6,210.9,1112.7,210.9L1112.7,210.9z"/>
			</g>
		</g>
	</g>
</g>
<g id="Layer_2" class="st0">
	<g id="Symbols" class="st1">
		<g id="Mobile-Header" transform="translate(-14.000000, -17.000000)">
			<g id="Burger-Menu_Icon">
				<g transform="translate(14.000000, 17.000000)">
					<rect id="Rectangle-2" x="22.8" y="59.3" class="st2" width="452.6" height="67.9"/>
					<rect id="Rectangle-2_1_" x="22.8" y="217.7" class="st2" width="452.6" height="67.9"/>
					<rect id="Rectangle-2_2_" x="22.8" y="376.1" class="st2" width="271.6" height="67.9"/>
				</g>
			</g>
		</g>
	</g>
</g>
<g id="Layer_3">
	<g id="Symbols_1_">
		<g id="Main-Header_1_" transform="translate(-825.000000, -17.000000)">
			<g id="Fill-1">
				<path class="st3" d="M1073.5,34.7c-84,0-152.1,68.7-152.1,153.5c0,26,5.8,51.5,16,78.1c46.4,123.1,136,226.8,136,226.8
					s87.5-100.5,134.4-222.8c11.3-28.2,17.7-55,17.7-82.1C1225.5,103.4,1157.4,34.7,1073.5,34.7 M1073.5,239.5
					c-30.2,0-54.6-24.6-54.6-55.1c0-30.4,24.4-55,54.6-55c30.1,0,54.5,24.6,54.5,55C1128,214.9,1103.6,239.5,1073.5,239.5"/>
			</g>
		</g>
	</g>
</g>
</svg>
